{
  "Functionsblock": {
    "Type": "newFolder",
    "Number": 1,
    "ConfigData": {
      "Config_1": {
        "Name": "BEZ5",
        "KonfType": "String",
        "DefaultValue": "",
        "DataRange": "",
        "Value": ""
      },
      "Config_2": {
        "Name": "GROUP",
        "KonfType": "Integer",
        "DefaultValue": 0,
        "DataRange": "",
        "Value": 0
      }
    },
    "Parameter": {
      "Param_1": {
        "Name": "PW",
        "KonfType": "Single",
        "DefaultValue": 0,
        "Value": 0,
        "EngUnit": "%"
      }
    }
  }
}